{
  "changes": [
    {
      "description": "Replace secrets scanning tool to gitleaks. Breaking change! You have to update your pipe variables. Take a look at the README for an additional information.",
      "type": "major"
    },
    {
      "description": "Internal maintenance: bump packages in requirements.",
      "type": "patch"
    },
    {
      "description": "Internal maintenance: bump pipes versions in pipelines config file.",
      "type": "patch"
    }
  ],
  "created_at": "2024-07-11T07:40:34+00:00",
  "version": "2.0.0"
}