{
  "changes": [
    {
      "description": "Update gitleaks version. Replace deprecated commands. Breaking change! You have to update your pipe variables. Take a look at the README for an additional information.",
      "type": "major"
    }
  ],
  "created_at": "2024-10-29T12:42:30+00:00",
  "version": "3.0.0"
}