{
  "changes": [
    {
      "description": "Add commit to file path in annotations.",
      "type": "minor"
    },
    {
      "description": "Internal maintenance: Update docker image zricethezav/gitleaks to v8.23.3.",
      "type": "patch"
    },
    {
      "description": "Internal maintenance: bump pipes versions in pipelines config file.",
      "type": "patch"
    }
  ],
  "created_at": "2025-02-14T12:15:28+00:00",
  "version": "3.1.0"
}